Vizualizing Crude Oil Analysis: World car production grows 3 times faster than global oil supplies
…
 [1] "2023" "2022" "2021" "2020" "2019" "2018" "2017" "2016" "2015" "2014"
[11] "2013" "2012" "2011" "2010" "2009" "2008" "2007" "2006" "2005" "2004"
[21] "2003" "2002" "2001" "2000" "1999"

Step 2: Get Common Data

# Filter data based on common countries and common years
new_cars_df_filtered <- new_cars_df |>
  filter(Country %in% common_countries) |>
  select(all_of(c("Country", common_years)))
print(new_cars_df_filtered)

# A tibble: 39 × 26
   Country `2023` `2022` `2021` `2020` `2019` `2018` `2017` `2016` `2015` `2014`
   <chr>    <dbl>  <dbl>  <dbl>  <dbl>  <dbl>  <dbl>  <dbl>  <dbl>  <dbl>  <dbl>
 1 ARGENT… 6.11e5 5.37e5 4.35e5 2.57e5 3.15e5 4.67e5 4.72e5 4.73e5 5.34e5 6.17e5
 2 AUSTRA… 0      0      0      0      0      0      9.86e4 1.61e5 1.73e5 1.80e5
 3 AUSTRIA 1.14e5 1.08e5 1.37e5 1.05e5 1.79e5 1.65e5 9.99e4 1.08e5 1.26e5 1.52e5
 4 BELGIUM 3.32e5 2.77e5 2.61e5 2.67e5 2.86e5 3.08e5 3.79e5 3.99e5 4.09e5 5.17e5
 5 BRAZIL  2.32e6 2.37e6 2.25e6 2.01e6 2.94e6 2.88e6 2.70e6 2.16e6 2.43e6 3.15e6
 6 CANADA  1.55e6 1.23e6 1.12e6 1.38e6 1.92e6 2.02e6 2.20e6 2.37e6 2.28e6 2.39e6
 7 CHINA   3.02e7 2.70e7 2.61e7 2.52e7 2.57e7 2.78e7 2.90e7 2.81e7 2.45e7 2.37e7
 8 COLOMB… 0      0      0      0      0      7.28e4 0      0      0      0     
 9 EGYPT   0      0      2.38e4 2.38e4 1.85e4 7.16e4 3.66e4 3.62e4 3.60e4 4.25e4
10 FINLAND 3.02e4 7.30e4 9.32e4 8.63e4 1.15e5 1.12e5 9.16e4 5.53e4 6.91e4 4.50e4
# ℹ 29 more rows
# ℹ 15 more variables: `2013` <dbl>, `2012` <dbl>, `2011` <dbl>, `2010` <dbl>,
#   `2009` <dbl>, `2008` <dbl>, `2007` <dbl>, `2006` <dbl>, `2005` <dbl>,
#   `2004` <dbl>, `2003` <dbl>, `2002` <dbl>, `2001` <dbl>, `2000` <dbl>,
#   `1999` <dbl>
…
